4.085613787174224854e-01
3.964512944221496582e-01
3.862003386020660400e-01
3.776575326919555664e-01
3.704452514648437500e-01
3.639438748359680176e-01
3.574892878532409668e-01
3.507129251956939697e-01
3.436624407768249512e-01
3.366236090660095215e-01
3.298770487308502197e-01
3.235461711883544922e-01
3.175711333751678467e-01
3.117892444133758545e-01
3.060556650161743164e-01
3.003231883049011230e-01
2.946543097496032715e-01
2.891861796379089355e-01
2.840777635574340820e-01
2.794550061225891113e-01
2.753724157810211182e-01
2.718091905117034912e-01
2.687162756919860840e-01
2.660866379737854004e-01
2.639871835708618164e-01
2.625160813331604004e-01
2.617127895355224609e-01
2.614962160587310791e-01
2.616950869560241699e-01
2.621504962444305420e-01
2.627821564674377441e-01
2.635486721992492676e-01
2.643559873104095459e-01
2.650372385978698730e-01
2.654477059841156006e-01
2.655572593212127686e-01
2.654283046722412109e-01
2.651291489601135254e-01
2.646894752979278564e-01
2.641278803348541260e-01
2.634941041469573975e-01
2.628672719001770020e-01
2.623152732849121094e-01
2.618649601936340332e-01
2.615101933479309082e-01
2.612409591674804688e-01
2.610582411289215088e-01
2.609646916389465332e-01
2.609482407569885254e-01
2.609810233116149902e-01
2.610340714454650879e-01
2.610904574394226074e-01
2.611451745033264160e-01
2.611944079399108887e-01
2.612292468547821045e-01
2.612383067607879639e-01
2.612166404724121094e-01
2.611683607101440430e-01
2.611016333103179932e-01
2.610219419002532959e-01
2.609307765960693359e-01
2.608299255371093750e-01
2.607251703739166260e-01
2.606244683265686035e-01
2.605332732200622559e-01
2.604522705078125000e-01
2.603802680969238281e-01
2.603173553943634033e-01
2.602649033069610596e-01
2.602224946022033691e-01
2.601866722106933594e-01
2.601530849933624268e-01
2.601192295551300049e-01
2.600843310356140137e-01
2.600472569465637207e-01
2.600058913230895996e-01
2.599586844444274902e-01
2.599059045314788818e-01
2.598491609096527100e-01
2.597894072532653809e-01
2.597269415855407715e-01
2.596624493598937988e-01
2.595973014831542969e-01
2.595328688621520996e-01
2.594696879386901855e-01
2.594074606895446777e-01
2.593460977077484131e-01
2.592857182025909424e-01
2.592262029647827148e-01
2.591666877269744873e-01
2.591063976287841797e-01
2.590450048446655273e-01
2.589823603630065918e-01
2.589181363582611084e-01
2.588520646095275879e-01
2.587838768959045410e-01
2.587137520313262939e-01
2.586420178413391113e-01
2.585685849189758301e-01
2.584936022758483887e-01
2.584171295166015625e-01
2.583394646644592285e-01
2.582606375217437744e-01
2.581805586814880371e-01
2.580990195274353027e-01
2.580161392688751221e-01
2.579315304756164551e-01
2.578451633453369141e-01
2.577567100524902344e-01
2.576659917831420898e-01
2.575728297233581543e-01
2.574771046638488770e-01
2.573785185813903809e-01
2.572771310806274414e-01
2.571726739406585693e-01
2.570651173591613770e-01
2.569541931152343750e-01
2.568398416042327881e-01
2.567218542098999023e-01
2.566000819206237793e-01
2.564742565155029297e-01
2.563440799713134766e-01
2.562093138694763184e-01
2.560696601867675781e-01
2.559248805046081543e-01
2.557745277881622314e-01
2.556182742118835449e-01
2.554558217525482178e-01
2.552868127822875977e-01
2.551108002662658691e-01
2.549273967742919922e-01
2.547361254692077637e-01
2.545364499092102051e-01
2.543279826641082764e-01
2.541099488735198975e-01
2.538818418979644775e-01
2.536428570747375488e-01
2.533923089504241943e-01
2.531292736530303955e-01
2.528528869152069092e-01
2.525621652603149414e-01
2.522558569908142090e-01
2.519330382347106934e-01
2.515921294689178467e-01
2.512319087982177734e-01
2.508507072925567627e-01
2.504467964172363281e-01
2.500182986259460449e-01
2.495631277561187744e-01
2.490789890289306641e-01
2.485633343458175659e-01
2.480134665966033936e-01
2.474263012409210205e-01
2.467984706163406372e-01
2.461262196302413940e-01
2.454057186841964722e-01
2.446324378252029419e-01
2.438015043735504150e-01
2.429077327251434326e-01
2.419453561305999756e-01
2.409080713987350464e-01
2.397890836000442505e-01
2.385810911655426025e-01
2.372761666774749756e-01
2.358659207820892334e-01
2.343412339687347412e-01
2.326926290988922119e-01
2.309101521968841553e-01
2.289831936359405518e-01
2.269010990858078003e-01
2.246527224779129028e-01
2.222268134355545044e-01
2.196123600006103516e-01
2.167983055114746094e-01
2.137740105390548706e-01
2.105296105146408081e-01
2.070557773113250732e-01
2.033444941043853760e-01
1.993888765573501587e-01
1.951836645603179932e-01
1.907255798578262329e-01
1.860131174325942993e-01
1.810474544763565063e-01
1.758323162794113159e-01
1.703743189573287964e-01
1.646832227706909180e-01
1.587720811367034912e-01
1.526575237512588501e-01
1.463596373796463013e-01
1.399022042751312256e-01
1.333123743534088135e-01
1.266207993030548096e-01
1.198611408472061157e-01
1.130699738860130310e-01
1.062861680984497070e-01
9.955030679702758789e-02
9.290437400341033936e-02
8.639068901538848877e-02
8.005148917436599731e-02
7.392769306898117065e-02
6.805809587240219116e-02
6.247866898775100708e-02
5.722160264849662781e-02
5.231432989239692688e-02
4.777915775775909424e-02
4.363245889544487000e-02
3.988427668809890747e-02
3.653802722692489624e-02
3.359017521142959595e-02
3.103057481348514557e-02
2.884249016642570496e-02
2.700341679155826569e-02
2.548575960099697113e-02
2.425770089030265808e-02
2.328411862254142761e-02
2.252794429659843445e-02
2.195112034678459167e-02
2.151596732437610626e-02
2.118643745779991150e-02
2.092905528843402863e-02
2.071378007531166077e-02
2.051495015621185303e-02
2.031162939965724945e-02
2.008792944252490997e-02
1.983300596475601196e-02
1.954071223735809326e-02
1.920921541750431061e-02
1.884029246866703033e-02
1.843858323991298676e-02
1.801086589694023132e-02
1.756512746214866638e-02
1.710993610322475433e-02
1.665363647043704987e-02
1.620394177734851837e-02
1.576733775436878204e-02
1.534905843436717987e-02
1.495268940925598145e-02
1.458026189357042313e-02
1.423240639269351959e-02
1.390844117850065231e-02
1.360659021884202957e-02
1.332427840679883957e-02
1.305851154029369354e-02
1.280588377267122269e-02
1.256301067769527435e-02
1.232671551406383514e-02
1.209417171776294708e-02
1.186298392713069916e-02
1.163141615688800812e-02
1.139823812991380692e-02
1.116284914314746857e-02
1.092517562210559845e-02
1.068564038723707199e-02
1.044500339776277542e-02
1.020434312522411346e-02
9.964827448129653931e-03
9.727703407406806946e-03
9.494127705693244934e-03
9.265062399208545685e-03
9.041330777108669281e-03
8.823405019938945770e-03
8.611554279923439026e-03
8.405717089772224426e-03
8.205649442970752716e-03
8.010909892618656158e-03
7.820932194590568542e-03
7.635089568793773651e-03
7.452770136296749115e-03
7.273455150425434113e-03
7.096669636666774750e-03
6.922134198248386383e-03
6.749689579010009766e-03
6.579297594726085663e-03
6.411083973944187164e-03
6.245207972824573517e-03
6.081926636397838593e-03
5.921489093452692032e-03
5.764140281826257706e-03
5.610050167888402939e-03
5.459348205476999283e-03
5.312022753059864044e-03
5.168030504137277603e-03
5.027290899306535721e-03
4.889627452939748764e-03
4.754830617457628250e-03
4.622751381248235703e-03
4.493226762861013412e-03
4.366131965070962906e-03
4.241375718265771866e-03
4.118960350751876831e-03
3.998883999884128571e-03
3.881210461258888245e-03
3.765975357964634895e-03
3.653264371678233147e-03
3.543111030012369156e-03
3.435532795265316963e-03
3.330536186695098877e-03
3.228070214390754700e-03
3.128118813037872314e-03
3.030556719750165939e-03
2.935350406914949417e-03
2.842393470928072929e-03
2.751654712483286858e-03
2.663065213710069656e-03
2.576605184003710747e-03
2.492247847840189934e-03
2.409985754638910294e-03
2.329817740246653557e-03
2.251741709187626839e-03
2.175736706703901291e-03
2.101778518408536911e-03
2.029845258221030235e-03
1.959898974746465683e-03
1.891881576739251614e-03
1.825765124522149563e-03
1.761495717801153660e-03
1.699054846540093422e-03
1.638378365896642208e-03
1.579485833644866943e-03
1.522329053841531277e-03
1.466898480430245399e-03
1.413176069036126137e-03
1.361145405098795891e-03
1.310791471041738987e-03
1.262081670574843884e-03
1.214974792674183846e-03
1.169459777884185314e-03
1.125502749346196651e-03
1.083062612451612949e-03
1.042104791849851608e-03
1.002599368803203106e-03
9.645347599871456623e-04
9.278610232286155224e-04
8.925652364268898964e-04
8.586005424149334431e-04
8.259580354206264019e-04
7.945831748656928539e-04
7.644651923328638077e-04
7.355532725341618061e-04
7.078197668306529522e-04
6.812298670411109924e-04
6.557515007443726063e-04
6.313470657914876938e-04
6.079901359044015408e-04
5.856393836438655853e-04
5.642746691592037678e-04
5.438677035272121429e-04
5.243762279860675335e-04
5.057719536125659943e-04
4.880291526205837727e-04
4.711084184236824512e-04
4.549901059363037348e-04
4.396327422000467777e-04
4.250088823027908802e-04
4.110950394533574581e-04
3.978555905632674694e-04
3.852688532788306475e-04
3.733057819772511721e-04
3.619360213633626699e-04
3.511424583848565817e-04
3.408905467949807644e-04
3.311645705252885818e-04
3.219302161596715450e-04
3.131715347990393639e-04
3.048604412470012903e-04
2.969802299048751593e-04
2.895069192163646221e-04
2.824271214194595814e-04
2.757069596555083990e-04
2.693396236281841993e-04
2.633006952237337828e-04
2.575838880147784948e-04
2.521563437767326832e-04
2.470105537213385105e-04
2.421312528895214200e-04
2.375043404754251242e-04
2.331095747649669647e-04
2.289392577949911356e-04
2.249826648039743304e-04
2.212167455581948161e-04
2.176436100853607059e-04
2.142415323760360479e-04
2.110038622049614787e-04
2.079210244119167328e-04
2.049816539511084557e-04
2.021808468271046877e-04
1.995032944250851870e-04
1.969493750948458910e-04
1.945035619428381324e-04
1.921640068758279085e-04
1.899237249745056033e-04
1.877750910352915525e-04
1.857173774624243379e-04
1.837495947256684303e-04
1.818893069867044687e-04
1.801799808163195848e-04
1.787553774192929268e-04
1.779633748810738325e-04
1.787674409570172429e-04
1.835006987676024437e-04
1.967601710930466652e-04
2.223361952928826213e-04
2.484692377038300037e-04
2.396320924162864685e-04
1.912482111947610974e-04
1.648023753659799695e-04
1.883715885924175382e-04
2.085421292576938868e-04
1.850839180406183004e-04
1.600462128408253193e-04
1.729848736431449652e-04
1.873174187494441867e-04
1.704451133264228702e-04
1.553304318804293871e-04
1.662792055867612362e-04
1.725964684737846255e-04
1.584455894771963358e-04
1.517269993200898170e-04
1.606841251486912370e-04
1.609325263416394591e-04
1.501770166214555502e-04
1.487847330281510949e-04
1.547102583572268486e-04
1.517863711342215538e-04
1.446638198103755713e-04
1.456278550904244184e-04
1.486497640144079924e-04
1.448424591217190027e-04
1.405818620696663857e-04
1.420023909304291010e-04
1.430060656275600195e-04
1.395297585986554623e-04
1.370338723063468933e-04
1.381008478347212076e-04
1.380239991704002023e-04
1.352223043795675039e-04
1.336195127805694938e-04
1.341675379080697894e-04
1.336444838671013713e-04
1.314665132667869329e-04
1.302470627706497908e-04
1.303607568843290210e-04
1.297169219469651580e-04
1.280152500839903951e-04
1.269265776500105858e-04
1.267322077183052897e-04
1.260997814824804664e-04
1.247376931132748723e-04
1.236923853866755962e-04
1.232755894307047129e-04
1.226848398800939322e-04
1.215777228935621679e-04
1.205593362101353705e-04
1.199749895022250712e-04
1.194120704894885421e-04
1.185063520097173750e-04
1.175317302113398910e-04
1.168224116554483771e-04
1.162459593615494668e-04
1.154900164692662656e-04
1.145961141446605325e-04
1.138133593485690653e-04
1.131819662987254560e-04
1.125167109421454370e-04
1.117292995331808925e-04
1.109272343455813825e-04
1.102337046177126467e-04
1.095941843232139945e-04
1.088962308131158352e-04
1.081422888091765344e-04
1.074109313776716590e-04
1.067473640432581306e-04
1.060986760421656072e-04
1.054094900609925389e-04
1.046941615641117096e-04
1.040048518916592002e-04
1.033524313243106008e-04
1.027074904413893819e-04
1.020425479509867728e-04
1.013617365970276296e-04
1.006998500088229775e-04
1.000558695523068309e-04
9.942366887116804719e-05
9.878397395368665457e-05
9.813464566832408309e-05
9.749289893079549074e-05
9.686002158559858799e-05
9.624189988244324923e-05
9.562465129420161247e-05
9.500075248070061207e-05
9.437739936402067542e-05
9.376423258800059557e-05
9.315924398833885789e-05
9.255831537302583456e-05
9.196023165713995695e-05
9.135984146269038320e-05
9.076290007214993238e-05
9.017290722113102674e-05
8.958516264101490378e-05
8.900497050490230322e-05
8.842691022437065840e-05
8.785045065451413393e-05
8.727700333110988140e-05
8.670719398651272058e-05
8.613998943474143744e-05
8.558030822314321995e-05
8.502408309141173959e-05
8.446768333669751883e-05
8.391644223593175411e-05
8.336715109180659056e-05
8.282037742901593447e-05
8.227892249124124646e-05
8.174120011972263455e-05
8.120420534396544099e-05
8.067516318988054991e-05
8.014558989088982344e-05
7.962048402987420559e-05
7.909897976787760854e-05
7.857711170800030231e-05
7.806216308381408453e-05
7.755024125799536705e-05
7.703956362092867494e-05
7.653470674995332956e-05
7.603136327816173434e-05
7.553138857474550605e-05
7.503390952479094267e-05
7.454094884451478720e-05
7.404915231745690107e-05
7.356028072535991669e-05
7.307657506316900253e-05
7.259527046699076891e-05
7.211626507341861725e-05
7.163883856264874339e-05
7.116720371413975954e-05
7.069621642585843801e-05
7.023026410024613142e-05
6.976543227210640907e-05
6.930479867151007056e-05
6.884724280098453164e-05
6.838901754235848784e-05
6.793931243009865284e-05
6.748766463715583086e-05
6.703961844323202968e-05
6.659708742517977953e-05
6.615441816393285990e-05
6.571561971213668585e-05
6.527990626636892557e-05
6.484890036517754197e-05
6.441857840400189161e-05
6.399116682587191463e-05
6.356812082231044769e-05
6.314559868769720197e-05
6.272843893384560943e-05
6.231509178178384900e-05
6.190893327584490180e-05
6.150690751383081079e-05
6.111690890975296497e-05
6.074153498047962785e-05
6.039392974344082177e-05
6.009323260514065623e-05
5.987709664623253047e-05
5.982104994473047554e-05
6.006304101902060211e-05
6.087725705583579838e-05
6.278138607740402222e-05
6.675555778201669455e-05
7.452144927810877562e-05
8.864020492183044553e-05
1.115619234042242169e-04
1.408744719810783863e-04
1.619487302377820015e-04
1.496222976129502058e-04
1.018794937408529222e-04
5.963272997178137302e-05
6.108207162469625473e-05
9.180168126476928592e-05
1.065910473698750138e-04
8.526025339961051941e-05
5.690224497811868787e-05
5.696984590031206608e-05
7.673345680814236403e-05
8.226201316574588418e-05
6.536686851177364588e-05
5.153282472747378051e-05
5.777483966085128486e-05
6.905452028149738908e-05
6.587792449863627553e-05
5.362799856811761856e-05
5.031192631577141583e-05
5.752571814809925854e-05
6.113187555456534028e-05
5.503192005562596023e-05
4.875008380622602999e-05
5.037907976657152176e-05
5.489331670105457306e-05
5.406300260801799595e-05
4.909433118882589042e-05
4.707570406026206911e-05
4.949554568156599998e-05
5.119878187542781234e-05
4.909106064587831497e-05
4.615032230503857136e-05
4.600339525495655835e-05
4.766212441609241068e-05
4.782838368555530906e-05
4.594692290993407369e-05
4.441520286491140723e-05
4.470930070965550840e-05
4.555438499664887786e-05
4.519758658716455102e-05
4.385276770335622132e-05
4.301047010812908411e-05
4.322471431805752218e-05
4.357646321295760572e-05
4.316079866839572787e-05
4.224212170811370015e-05
4.167564839008264244e-05
4.171601540292613208e-05
4.182201882940717041e-05
4.148841253481805325e-05
4.084784450242295861e-05
4.038075712742283940e-05
4.027148679597303271e-05
4.025328235002234578e-05
4.001259367214515805e-05
3.955444117309525609e-05
3.913922046194784343e-05
3.892166932928375900e-05
3.882043893099762499e-05
3.864031896227970719e-05
3.831731737591326237e-05
3.795086377067491412e-05
3.767304588109254837e-05
3.749721508938819170e-05
3.733436824404634535e-05
3.710036253323778510e-05
3.680474765133112669e-05
3.651361839729361236e-05
3.627823389251716435e-05
3.608989936765283346e-05
3.589849438867531717e-05
3.566913073882460594e-05
3.540883699315600097e-05
3.515576099744066596e-05
3.493261465337127447e-05
3.473311880952678621e-05
3.453540193731896579e-05
3.431968798395246267e-05
3.408948759897612035e-05
3.385665695532225072e-05
3.363678115420043468e-05
3.343318530824035406e-05
3.323542478028684855e-05
3.303477569716051221e-05
3.282556281192228198e-05
3.261059828219003975e-05
3.239924262743443251e-05
3.219470090698450804e-05
3.199640923412516713e-05
3.180464773322455585e-05
3.160912820021621883e-05
3.141148408758454025e-05
3.121348709100857377e-05
3.101400216110050678e-05
3.081715476582758129e-05
3.062762698391452432e-05
3.043941978830844164e-05
3.025179103133268654e-05
3.006686711160000414e-05
2.988028609252069145e-05
2.969313027278985828e-05
2.950749149022158235e-05
2.932398274424485862e-05
2.914210745075251907e-05
2.896231853810604662e-05
2.878442683140747249e-05
2.860806125681847334e-05
2.843200854840688407e-05
2.825712181220296770e-05
2.808294084388762712e-05
2.790955477394163609e-05
2.773756204987876117e-05
2.756631874945014715e-05
2.739732735790312290e-05
2.722993303905241191e-05
2.706294981180690229e-05
2.689765278773847967e-05
2.673412745934911072e-05
2.657102959346957505e-05
2.640881211846135557e-05
2.624774424475617707e-05
2.608779141155537218e-05
2.592979217297397554e-05
2.577170926088001579e-05
2.561443579907063395e-05
2.545920506236143410e-05
2.530439451220445335e-05
2.515160667826421559e-05
2.499909351172391325e-05
2.484817741787992418e-05
2.469897663104347885e-05
2.454926470818463713e-05
2.440038952045142651e-05
2.425415004836395383e-05
2.410865818092133850e-05
2.396354466327466071e-05
2.381944432272575796e-05
2.367783417867030948e-05
2.353556556045077741e-05
2.339402453799266368e-05
2.325502464373130351e-05
2.311623211426194757e-05
2.297934588568750769e-05
2.284211223013699055e-05
2.270671029691584408e-05
2.257212327094748616e-05
2.244002462248317897e-05
2.230697464256081730e-05
2.217737346654757857e-05
2.204843440267723054e-05
2.192362080677412450e-05
2.180255614803172648e-05
2.168807077396195382e-05
2.158540337404701859e-05
2.150321597582660615e-05
2.145567486877553165e-05
2.147684972442220896e-05
2.162047712772618979e-05
2.200077869929373264e-05
2.283378125866875052e-05
2.453505840094294399e-05
2.791105362121015787e-05
3.445452603045850992e-05
4.685372550738975406e-05
6.910429510753601789e-05
1.053594387485645711e-04
1.524908293504267931e-04
1.888466213131323457e-04
1.730013318592682481e-04
9.833947115112096071e-05
2.877903534681536257e-05
2.967377986351493746e-05
7.957970956340432167e-05
1.034167580655775964e-04
6.825026503065600991e-05
2.400119774392805994e-05
2.800323636620305479e-05
6.066382047720253468e-05
6.525721983052790165e-05
3.579535405151546001e-05
1.860483826021663845e-05
3.401250432943925261e-05
4.938799975207075477e-05
3.819231642410159111e-05
2.011026481341104954e-05
2.229249912488739938e-05
3.539956742315553129e-05
3.494344855425879359e-05
2.237529770354740322e-05
1.821471960283815861e-05
2.599661456770263612e-05
2.990914799738675356e-05
2.332860822207294405e-05
1.747901114868000150e-05
2.043498352577444166e-05
2.501182098058052361e-05
2.292731005582027137e-05
1.792922557797282934e-05
1.763744330673944205e-05
2.098400000249966979e-05
2.155116453650407493e-05
1.845438600867055357e-05
1.662857721385080367e-05
1.815766336221713573e-05
1.967618845810648054e-05
1.851447814260609448e-05
1.655774576647672802e-05
1.653835352044552565e-05
1.780819911800790578e-05
1.796522883523721248e-05
1.671918289503082633e-05
1.589493876963388175e-05
1.636759952816646546e-05
1.699081076367292553e-05
1.663403782004024833e-05
1.579028685227967799e-05
1.555172093503642827e-05
1.595910180185455829e-05
1.615429937373846769e-05
1.574589805386494845e-05
1.525353764009196311e-05
1.521369995316490531e-05
1.545410668768454343e-05
1.546195744595024735e-05
1.514110317657468840e-05
1.485147640778450295e-05
1.484486983827082440e-05
1.495838478149380535e-05
1.490961585659533739e-05
1.468241498514544219e-05
1.449178853363264352e-05
1.446759688406018540e-05
1.450944364478345960e-05
1.445388079446274787e-05
1.429408257536124438e-05
1.415206043020589277e-05
1.410546065017115325e-05
1.410406821378273889e-05
1.405573311785701662e-05
1.394251194142270833e-05
1.382605387334479019e-05
1.376225554849952459e-05
1.373544637317536399e-05
1.369263645756291226e-05
1.361026806989684701e-05
1.351423270534723997e-05
1.344083011645125225e-05
1.339524624199839309e-05
1.335350134468171746e-05
1.329085898760240525e-05
1.321179024671437219e-05
1.313761731580598280e-05
1.307949150941567495e-05
1.303232693317113444e-05
1.298000279348343611e-05
1.291759872401598841e-05
1.284809241042239591e-05
1.278558011108543724e-05
1.273153065994847566e-05
1.268144387722713873e-05
1.262776822841260582e-05
1.256775703950552270e-05
1.250663808605168015e-05
1.244944178324658424e-05
1.239748053194489330e-05
1.234630781254963949e-05
1.229346071340842173e-05
1.223855360876768827e-05
1.218234410771401599e-05
1.212672668771119788e-05
1.207620516652241349e-05
1.202642033604206517e-05
1.197549681819509715e-05
1.192430408991640434e-05
1.187143607239704579e-05
1.181999869004357606e-05
1.176946352643426508e-05
1.172142674477072433e-05
1.167266964330337942e-05
1.162375610874732956e-05
1.157470069301780313e-05
1.152531331172212958e-05
1.147631519415881485e-05
1.142899236583616585e-05
1.138247262133518234e-05
1.133588193624746054e-05
1.128968688135500997e-05
1.124354275816585869e-05
1.119615171774057671e-05
1.115050599764799699e-05
1.110522862290963531e-05
1.106066156353335828e-05
1.101580801332602277e-05
1.097219592338660732e-05
1.092755155696067959e-05
1.088432054530130699e-05
1.084075847757048905e-05
1.079621506505645812e-05
1.075489308277610689e-05
1.071157930709887296e-05
1.067001630872255191e-05
1.062848787114489824e-05
1.058686211763415486e-05
1.054513450071681291e-05
1.050430910254362971e-05
1.046372744895052165e-05
1.042298390530049801e-05
1.038296431943308562e-05
1.034347224049270153e-05
1.030462590279057622e-05
1.026492282107938081e-05
1.022505330183776096e-05
1.018705279420828447e-05
1.014876852423185483e-05
1.011092899716459215e-05
1.007265382213518023e-05
1.003577017399948090e-05
9.997456800192594528e-06
9.960792340280022472e-06
9.924146070261485875e-06
9.887702617561444640e-06
9.851576578512322158e-06
9.815728844841942191e-06
9.779794709174893796e-06
9.744884664542041719e-06
9.709163350635208189e-06
9.673564818513114005e-06
9.639704330766107887e-06
9.604756996850483119e-06
9.571122063789516687e-06
9.536872312310151756e-06
9.502516149950679392e-06
9.469008546147961169e-06
9.436009349883534014e-06
9.403274816577322781e-06
9.370021871291100979e-06
9.337986739410553128e-06
9.305252206104341894e-06
9.273930118069984019e-06
9.241453881259076297e-06
9.209419658873230219e-06
9.178062100545503199e-06
9.147532182396389544e-06
9.116422006627544761e-06
9.085549208975862712e-06
9.055400369106791914e-06
9.024364771903492510e-06
8.994865311251487583e-06
8.964443622971884906e-06
8.934916877478826791e-06
8.905455615604296327e-06
8.876528227119706571e-06
8.848349352774675936e-06
8.820179573376663029e-06
8.791710570221766829e-06
8.765839083935134113e-06
8.739615623198915273e-06
8.715216608834452927e-06
8.691766197443939745e-06
8.672906915307976305e-06
8.660102139401715249e-06
8.656994396005757153e-06
8.667850124766118824e-06
8.707043889444321394e-06
8.789915227680467069e-06
8.950275514507666230e-06
9.247241905541159213e-06
9.782303095562383533e-06
1.074012288881931454e-05
1.245184375875396654e-05
1.550063279864843935e-05
2.092477370752021670e-05
3.041475065401755273e-05
4.665327651309780777e-05
7.271660433616489172e-05
1.104971015593037009e-04
1.533930335426703095e-04
1.812348782550543547e-04
1.623373682377859950e-04
9.491881064604967833e-05
2.590694384707603604e-05
1.033605167322093621e-05
4.692746006185188890e-05
8.478462405037134886e-05
7.927514525363221765e-05
3.742162152775563300e-05
8.773352419666480273e-06
2.032817610597703606e-05
4.715460090665146708e-05
5.080091796116903424e-05
2.752954242168925703e-05
8.686281034897547215e-06
1.481815434090094641e-05
3.113654747721739113e-05
3.281050157966092229e-05
1.839908327383454889e-05
7.995951818884350359e-06
